{
    "distance": 50,
    "cars": [
      {
        "image": "https://lb.assets.fiat.com/assets/00/punto-my16/images/thumbnail/equipment/street.png",
        "speed": 148,
        "description": "The Fiat Punto is a supermini car produced by the Italian manufacturer Fiat since 1993.",
        "name": "Fiat Punto",
        "id": 1
      },
      {
        "image": "https://www.mazdausa.com/siteassets/vehicles/2017/m3s/trims/sport/17-m3s-sp-25d-snowflake-white.png",
        "speed": 235,
        "description": "Mazda 3 was introduced in 2003 as a 2004 model, replacing the Familia/323/Protegé.",
        "name": "Mazda 3",
        "id": 2
      },
      {
        "image": "http://www.nriol.com/images/benz-cla.png",
        "speed": 240,
        "description": "The CLA-Class is a coupe manufactured by Mercedes-Benz, based on the platform of the W176 A-Class and W246 B-Class compact cars.",
        "name": "Mercedes Benz CLA",
        "id": 3
      },
      {
        "image": "https://images.honda.ca/models/H/Models/2017/civic_sedan/ex_t_10417_nh_830mlunar_silver_metallic_front.png?width=1000",
        "speed": 177,
        "description": "The first generation Honda Civic was introduced on 11 July 1972, but sold as a 1973 model in Japan.",
        "name": "Honda Civic",
        "id": 4
      },
      {
        "image": "http://images.nadaguides.com/Models/320x240/2010-smart-fortwo.png",
        "speed": 102,
        "description": "Smart derives from cooperation with Swatch and Mercedes.",
        "name": "Smart",
        "id": 5
      },
      {
        "image": "https://www.e90post.com/forums/bar69/icon-e90m3-2.png",
        "speed": 230,
        "description": "The BMW 3 Series is the fifth generation compact executive car of the BMW 3 Series.",
        "name": "BMW 3",
        "id": 6
      }      
    ],
    "speed_limits": [
      {
        "position": 22,
        "speed": 60
      },
      {
        "position": 45,
        "speed": 80
      }
    ],
    "traffic_lights": [
      {
        "position": 28,
        "duration": 3000
      }
    ]
  }